-------------------------------------------------------------------------------
Test set: com.itheima.helloworld.HelloworldApplicationTests
-------------------------------------------------------------------------------
Tests run: 1, Failures: 0, Errors: 0, Skipped: 0, Time elapsed: 3.172 s - in com.itheima.helloworld.HelloworldApplicationTests
